ITEM: TIMESTEP
0
ITEM: NUMBER OF ATOMS
44
ITEM: BOX BOUNDS pp pp pp
0 2.34521
0 0.707107
-3.31662 3.31662
ITEM: ATOMS x y z 
2.23861 0.353553 2.7136 
1.81221 0.353553 0.301511 
2.02541 0.353553 1.50756 
1.91881 1.41421e-09 0.904534 
1.3858 0.353553 1.20605 
1.59901 0.353553 2.41209 
1.49241 1.41421e-09 1.80907 
0.959403 0.353553 2.11058 
2.13201 1.41421e-09 2.11058 
1.066 1.41421e-09 2.7136 
0.533002 0.353553 3.01511 
1.70561 1.41421e-09 3.01511 
0.746203 0.353553 0.904534 
0.639602 1.41421e-09 0.301511 
0.1066 0.353553 0.603023 
1.2792 1.41421e-09 0.603023 
0.319801 0.353553 1.80907 
0.213201 1.41421e-09 1.20605 
0.852803 1.41421e-09 1.50756 
0.426401 1.41421e-09 2.41209 
1.91881 1.41421e-09 -0.904534 
2.02541 0.353553 -1.50756 
1.49241 1.41421e-09 -1.80907 
2.13201 1.41421e-09 -2.11058 
2.23861 0.353553 -2.7136 
1.59901 0.353553 -2.41209 
1.066 1.41421e-09 -2.7136 
1.70561 1.41421e-09 -3.01511 
1.1726 0.353553 -3.31662 
1.81221 0.353553 -0.301511 
1.1726 0.353553 1.50756e-09 
0.639602 1.41421e-09 -0.301511 
1.2792 1.41421e-09 -0.603023 
1.3858 0.353553 -1.20605 
0.746203 0.353553 -0.904534 
0.213201 1.41421e-09 -1.20605 
0.852803 1.41421e-09 -1.50756 
0.959403 0.353553 -2.11058 
0.319801 0.353553 -1.80907 
0.426401 1.41421e-09 -2.41209 
0.533002 0.353553 -3.01511 
1.70561e-09 1.41421e-09 -3.31662 
1.70561e-09 1.41421e-09 1.50756e-09 
0.1066 0.353553 -0.603023 
